,53920,42968
,52019,42206
,52570,42476
,54220,42081
,54268,43420
,52288,42408
,54436,39727
,52391,44323
,54995,43655
,53761,43403
,53769,43786
,52883,41365
,54448,42846
,53358,40498
,54626,43461
,53751,42326
,52714,41735
,53545,43025
,55281,41180
,52522,42088
,53825,42358
,54951,43538
,55113,40262
,53366,41560
,52425,42226
,53729,43219
,54658,41295
,53236,44502
,54569,43519
,55192,40969
,52661,42382
,54389,41903
,54931,42810
,55003,43219
,56382,43858
,54258,44302
,53785,43039
,53844,44271
,53568,38856
,53300,41958
,54027,39799
,54307,44020
,52648,43224
,51953,41115
,56370,40191
,53655,41979
,49832,41548
,54146,41202
,52375,41772
,54484,41591
,51271,41252
,53894,43780
,51496,42107
,55580,41750
,52235,43593
,53009,45720
,52895,40396
,52314,40370
,53527,43264
,51552,42936
,54356,43953
,51788,41827
,53644,44911
,51526,41555
,52460,41243
,52790,40829
,53560,43487
,55317,41567
,54211,42145
,52736,43734
,54220,41543
,55487,40680
,53164,42365
,54372,42125
,52296,42854
,51853,42724
,55470,42381
,55843,43461
,53041,41762
,56020,44948
,54572,42044
,55615,39213
,51784,42659
,54678,42358
,55264,42101
,53628,45140
,51676,41313
,52069,42197
,53695,41876
,52425,41797
,55562,40697
,53371,40882
,53015,43465
,53484,45006
,54684,41479
,52344,45540
,56100,40476
,57237,41749
,52220,40576
,53611,42444
,54594,43850
,51844,42736
,53038,41204
,54636,40466
,52845,43435
,53530,39504
,53417,43154
,55258,43614
,54519,43642
,51681,45290
,49313,41972
,55194,44097
,55109,41603
,53142,43422
,53656,41913
,49901,43636
,53632,43440
,53989,42372
,53334,41711
,53446,41789
,53340,41575
,53856,41857
,54385,42851
,53719,41851
,56661,40693
,54461,41699
,53281,43550
,53105,43114
,51737,40814
,50511,45158
,56075,43071
,55576,41873
,54356,42479
,54014,43208
,54239,41432
,56462,42733
,53340,39854
,55692,42420
,55367,43043
,53716,44044
,51634,41676
,56679,42675
,54172,41958
,51823,40542
,53576,42596
,55265,39986
,52639,41267
,54347,42795
,53612,42060
,53398,43770
,49899,48712
,50062,49584
,49344,47683
,50670,46231
,53288,48577
,52169,49412
,51152,46601
,50763,49169
,49126,46607
,50904,49470
,50881,47814
,53902,49665
,50462,47490
,52624,50362
,51021,48653
,50826,48127
,51805,49498
,52195,49730
,53579,47959
,50801,48595
,51406,49935
,50128,50181
,52315,49319
,51436,48575
,50422,49794
,49230,49949
,50468,48101
,52922,47579
,50211,47660
,50048,46949
,51858,49406
,51096,48445
,49520,49471
,50393,50758
,51586,46956
,54046,46829
,50415,50077
,52875,46329
,50095,50565
,50470,51527
,48995,47894
,53082,48779
,49852,50340
,52092,49784
,50817,50224
,49486,49476
,49049,47984
,48535,46223
,51012,48233
,49587,48428
,52464,47550
,49969,48068
,52681,47241
,52638,48501
,52221,48520
,52812,47526
,49778,47221
,50719,47508
,50193,49198
,50687,48010
,51946,46605
,52617,49342
,52617,49460
,50676,47882
,51860,47899
,48536,49021
,51504,49603
,51653,48685
,48525,47944
,50002,49200
,50184,49458
,53053,49269
,50042,49853
,50696,46255
,50300,48715
,51437,48623
,51379,48160
,51144,47263
,50876,49734
,51413,46135
,50533,49789
,51135,47611
,51320,49118
,52559,52735
,52221,48011
,53397,48783
,51245,50137
,50507,50951
,51487,49624
,48837,48575
,50652,48996
,49663,50428
,49419,45147
,49601,47857
,48350,47100
,48039,50185
,50893,51127
,50739,49679
,52081,49489
,51496,46588
,50435,48231
,51497,47766
,51939,49800
,50580,48511
,49809,50064
,51722,48853
,50358,47959
,50638,48026
,51885,49564
,52500,51313
,53006,51319
,50172,47860
,50014,49077
,48904,50964
,52581,48207
,50885,47744
,51145,51511
,52560,50814
,48720,48943
,50949,48339
,47763,47492
,48093,48847
,50277,49607
,49807,48319
,52226,49015
,52224,49464
,49725,48980
,50350,48070
,50925,48541
,51546,49680
,51152,48744
,49375,48754
,49329,44378
,50618,50504
,49498,47624
,50908,47596
,51427,48795
,53081,49230
,52021,50652
,50696,49628
,51443,48057
,52385,48925
,50587,48838
,48529,46961
,50929,52530
,50067,49584
,52239,50403
,51380,46816
,49541,47532
,49049,50053
,58870,45226
,59374,44507
,59253,49893
,61300,45277
,61653,43778
,59953,45389
,60861,44796
,61930,46257
,58671,45183
,60593,45861
,58420,44781
,61855,46137
,61133,44700
,61112,45484
,63134,47142
,61235,45053
,57496,45405
,60372,44439
,60705,46366
,61213,48245
,58256,46216
,59183,46253
,60289,45788
,59207,45335
,62701,44788
,59882,44607
,61121,48956
,57415,44881
,57903,47229
,59331,42999
,60571,46112
,60784,47752
,58268,45701
,60763,45925
,62447,45235
,60465,48014
,59590,45610
,59217,47651
,62097,44621
,58634,43703
,61102,46312
,61878,47010
,61314,45663
,60249,47899
,59325,48978
,59029,43137
,60709,43461
,57817,45498
,61299,47746
,59362,45997
,62307,45105
,60231,47183
,59998,46912
,60739,45570
,61708,45883
,59066,46619
,58730,46803
,57717,48281
,57203,47382
,58348,48287
,60470,45476
,58924,46965
,58862,46266
,59400,47672
,60414,45052
,61598,45003
,58813,47990
,60992,44265
,59974,44364
,61145,45932
,60710,45087
,58694,46824
,59850,46681
,58608,47945
,58911,46230
,61417,43176
,59191,45551
,58485,43415
,62141,43026
,63370,45884
,58197,44714
,61331,43082
,60972,44250
,60424,43917
,62171,44736
,59684,46141
,60644,45680
,59411,48115
,59823,44185
,62181,49244
,60035,45759
,58759,46105
,60797,47826
,62939,44089
,61491,48260
,62262,46903
,59795,44489
,61395,46119
,58232,46796
,57976,45578
,61077,45880
,61777,47582
,62496,43916
,60479,45423
,58601,47656
,61032,44031
,58181,46222
,59356,45572
,55896,47225
,59692,44645
,60897,44915
,59337,42941
,57962,46260
,57813,45740
,59822,47324
,61761,48521
,61106,45858
,60987,46482
,61157,45321
,61543,46490
,57516,45058
,60514,47708
,58018,42944
,62275,46474
,62269,47075
,59431,46355
,59818,45806
,58318,47500
,60973,43825
,58218,44486
,60205,46653
,60403,46465
,60188,45957
,59305,44215
,60642,46219
,61794,45089
,60606,47553
,61284,45441
,61676,45255
,59277,44809
,59148,47748
,61285,44544
,59927,45471
,59855,45241
,62672,43501
,61648,47644
,61623,44381
,60987,48401
,60802,47068
,61971,46440
,59182,50285
,59748,52499
,58046,53129
,61496,51630
,57852,53639
,59985,54614
,57490,50448
,59352,48444
,58417,52216
,60418,51972
,58854,52919
,60774,53105
,61213,49916
,55095,52085
,57194,52148
,61975,52117
,58438,51888
,59017,51283
,60119,54375
,59899,50243
,62409,53289
,59807,48360
,60373,53833
,60248,51796
,60684,53227
,61369,51251
,58147,53037
,59753,52591
,60652,51129
,59461,51341
,58158,49589
,61310,49722
,59200,52802
,59593,51890
,56593,51088
,59163,55436
,60981,52675
,60806,52983
,59334,48886
,57234,52296
,62246,51019
,60982,50994
,61562,49999
,59552,50865
,59088,53114
,59087,49401
,57564,52301
,61744,53939
,58386,54126
,60678,50751
,57622,49400
,60525,50455
,59770,52990
,59152,52109
,58007,51251
,60072,51501
,61512,52776
,60005,50898
,60165,49050
,59865,51003
,58335,50170
,58052,52197
,62430,53034
,60343,52190
,59949,51416
,60403,53557
,57196,52798
,60011,49886
,57242,49888
,56580,50897
,56608,53024
,58583,52766
,58547,53001
,62336,54289
,64691,50948
,57681,51657
,60945,52204
,58014,53809
,61347,49963
,60564,52271
,59474,51569
,59922,51370
,60617,52220
,58855,51176
,57548,53060
,57486,51799
,62641,51926
,59666,52447
,61682,51161
,58859,51826
,59471,50576
,59316,50743
,58702,51112
,58906,50218
,58633,54156
,59252,49744
,62330,52499
,60574,51754
,60484,51739
,60563,49392
,60013,52410
,57890,53523
,59797,51090
,58670,51762
,60313,49557
,56378,51069
,58622,50401
,58860,51752
,61255,52264
,58647,53533
,62442,52636
,61004,52248
,56054,52169
,60445,52542
,59447,51355
,58059,53563
,57587,52335
,60038,53227
,59047,53225
,60163,52927
,57061,49822
,58286,52031
,59838,50740
,60235,50875
,59972,50086
,61787,53406
,60086,50479
,59818,50359
,59427,51337
,59379,48500
,58801,52767
,58936,51829
,58176,53199
,59128,50589
,59307,52419
,61265,51193
,59533,51023
,60657,50999
,57791,52937
,60801,50837
,60502,53335
,60320,49012
,59457,52582
,58792,52100
,57652,51718
,57388,51212
,58281,54245
,62349,52922
,57964,48880
,59620,52129
,43478,45608
,45419,45927
,46656,46590
,45018,45803
,43759,44307
,42188,44864
,43054,45478
,45434,43766
,44946,42258
,43835,45332
,43462,45636
,44202,45854
,45537,45294
,44871,46713
,43519,46607
,45255,49117
,45792,44032
,43714,42881
,44310,46642
,45233,43756
,44444,44968
,43338,46099
,42970,46238
,41967,46740
,44441,45522
,44777,44263
,44436,47374
,43155,45637
,45590,45829
,44781,45786
,43601,46919
,46305,45959
,41869,44010
,43346,44722
,42205,44895
,44128,43566
,42729,46022
,44993,47285
,43292,46926
,43911,45724
,43953,45891
,45779,47297
,42357,44214
,44328,43843
,42809,47544
,43157,42754
,43925,45390
,43115,47237
,43073,45662
,45030,47358
,44305,47441
,44191,46111
,45748,45373
,41650,44288
,42350,45677
,44121,45686
,42073,47804
,43537,44164
,45307,46959
,44906,44367
,45483,49576
,46259,47739
,45462,46015
,44314,46552
,44773,44472
,44108,47308
,44630,45910
,44403,45462
,45455,47051
,44222,47283
,44720,46277
,41762,45856
,44441,44084
,46080,45581
,44860,45401
,45467,46484
,43637,47501
,44730,44597
,45639,46267
,45155,46300
,42885,43424
,41809,46177
,44570,47080
,45621,43643
,43997,43614
,45602,47699
,45323,45375
,44009,45753
,45568,45030
,41393,47923
,44731,45782
,45463,44569
,40980,46486
,43674,44582
,45222,46187
,44653,46583
,41685,46400
,43546,46236
,46164,46580
,45144,44224
,44657,45522
,45636,44805
,43893,45804
,46325,46465
,43637,46126
,44980,46433
,43154,46704
,46369,46355
,45492,45184
,43310,47950
,45171,45436
,44134,45523
,45170,46219
,44343,46331
,44628,44128
,45053,41413
,43236,42815
,42442,46509
,43759,47038
,45990,47668
,42589,46455
,43547,46694
,41543,44527
,44149,46507
,43133,44100
,43126,46942
,45410,45844
,45070,46149
,45122,46441
,44795,45763
,44955,44084
,45013,46448
,43759,46136
,45917,46768
,44147,47245
,45202,45985
,40567,45043
,41319,43486
,46559,46467
,46176,44368
,45222,44704
,42722,46767
,41645,44900
,43028,46704
,43797,45072
,43056,45372
,41745,43699
,47649,44608
,45236,46488
,46727,44810
,37419,43143
,37688,42247
,38376,43893
,36237,45217
,38722,44656
,38742,45054
,38421,45050
,37021,45533
,37149,42966
,36392,42287
,36035,44994
,37456,43316
,36940,44599
,38839,45059
,38276,44131
,40551,43121
,35426,43662
,37080,44440
,38532,46215
,38633,44936
,38642,43168
,39339,43794
,38452,41706
,37408,42437
,36730,42052
,39154,45425
,39714,43112
,39198,44876
,35566,43812
,38652,43589
,38257,43698
,36061,44909
,39127,44669
,38187,42502
,38313,42918
,36147,45864
,39845,43456
,41604,45123
,36236,42655
,36689,41595
,38541,45422
,38141,42987
,39051,42209
,37956,45047
,35422,43143
,36552,42273
,41287,43899
,39519,44357
,36873,44927
,38370,43590
,38020,42414
,36792,46817
,38472,44317
,36964,44248
,36798,43188
,37909,44007
,37898,42264
,37621,44330
,35834,41572
,35738,47404
,37356,43223
,37533,46903
,36513,41768
,34472,44986
,35499,44956
,36848,44872
,38384,44349
,36227,42607
,39468,45148
,36477,43178
,38840,47026
,37168,42902
,39130,44427
,36148,42756
,34465,45660
,38121,42817
,41173,45297
,39118,43300
,37594,43236
,39978,47150
,34263,44388
,37344,45244
,35668,45488
,38895,46953
,36736,41209
,37139,46473
,39769,44240
,37555,48222
,38628,42083
,36138,45361
,37989,44472
,36908,44224
,33901,42137
,36302,41425
,37457,45359
,35407,45071
,37611,43696
,37488,43554
,36494,44775
,36028,44106
,37862,44856
,40421,43286
,36328,41576
,37066,46005
,37452,45645
,40608,42385
,37533,45788
,36006,44533
,34763,47185
,37961,43017
,38628,42425
,35529,42411
,39743,44229
,36956,41087
,35990,44312
,37781,43675
,38162,42849
,38631,42382
,39806,44052
,38792,42731
,36207,44053
,36670,43457
,35812,44237
,37933,44275
,36655,43690
,41421,45183
,36624,43557
,37216,42103
,38471,45196
,37423,43821
,38879,43601
,36314,42899
,38046,43222
,38334,44983
,37281,43566
,36633,45907
,36104,44858
,38928,44200
,37878,44712
,36730,46380
,37712,41709
,38167,44955
,37277,43318
,37223,44069
,39717,45768
,35514,43719
,36436,42042
,38171,43484
,38156,42125
,36941,45215
,35579,48814
,37634,49608
,36225,48957
,34355,49584
,36650,49853
,35241,51921
,33990,50289
,35412,50437
,37225,51572
,34150,49267
,33253,51495
,36105,51866
,34822,51148
,38237,48625
,36039,48341
,34297,47566
,32678,49616
,37350,50837
,35002,47288
,35272,50981
,35964,51413
,35483,51071
,37530,50158
,33031,49839
,36249,48621
,37262,48931
,36821,50119
,37033,49325
,34168,50938
,34843,49771
,37561,49995
,36796,52430
,36192,49919
,35770,52042
,34686,49648
,36048,49597
,35565,48339
,35546,49505
,38017,49279
,37639,51837
,35339,47420
,38382,50918
,35671,48294
,33398,51137
,37861,51564
,32927,49254
,35706,52352
,37843,47251
,36509,47537
,36854,51151
,35189,50295
,38406,50159
,34709,49183
,37294,50423
,35400,49266
,36094,47907
,38961,50227
,35159,50779
,35939,49289
,38855,49311
,35227,48318
,35781,49561
,37371,50259
,35080,47863
,34416,49861
,34118,47242
,37140,50855
,34842,51826
,36632,50048
,35660,50287
,35736,50946
,36861,48856
,36427,47279
,36048,49799
,35227,50595
,33610,47960
,34968,49788
,34845,46900
,35024,48489
,36339,51173
,34466,48775
,38087,50225
,36443,51660
,33720,49736
,35539,50166
,35419,49363
,35945,49817
,36246,51152
,36307,50278
,36381,52770
,36988,51376
,36844,49197
,35763,53479
,34452,49372
,36683,51494
,34557,49672
,37730,52956
,36351,49891
,33688,51396
,35642,50452
,33588,49671
,34530,49906
,33187,50018
,32941,47506
,37958,47446
,34185,51296
,31544,51040
,34534,50571
,33711,49295
,35069,49627
,36077,51330
,34309,50421
,34612,50949
,37262,49369
,37673,49210
,37296,49056
,35860,51362
,36089,50994
,32563,49750
,34552,51425
,36578,48187
,36380,52882
,34179,51422
,37032,49709
,32539,50210
,35552,48305
,37884,50585
,34466,50054
,36875,49080
,34891,51236
,36511,50864
,34829,50197
,36892,52297
,35829,51420
,34882,52761
,34294,51247
,35103,50857
,37587,52358
,34707,50043
,36536,50600
,36059,49522
,37330,47493
,36155,46086
,35458,49189
,38302,47823
,34539,48042
,35942,48277
,34071,46853
,37009,50665
,38026,49433
,30675,45875
,30226,45636
,28960,43900
,29217,46188
,30475,46664
,31713,42464
,33218,47967
,29143,44064
,28126,45449
,30038,41895
,30739,46310
,29558,46597
,31896,46740
,30517,46707
,29210,43704
,28471,44259
,29530,46416
,30682,45890
,29819,47338
,30642,44576
,31737,43229
,27470,46279
,29989,43024
,30491,41203
,31052,44147
,32661,43644
,30196,46361
,31796,47101
,31503,46222
,35614,43967
,28084,44238
,30778,45509
,31788,45290
,33695,46149
,30676,44504
,30775,47047
,33363,45845
,30177,45673
,30718,44320
,32597,45301
,32054,44723
,30608,45304
,30150,45514
,29362,47441
,28155,45255
,32486,45285
,31524,44845
,32405,46570
,31145,45032
,30406,42221
,30378,43157
,31392,45745
,31258,45528
,30153,43073
,31803,46564
,32331,43438
,28880,45886
,29106,43182
,30371,41309
,30169,46439
,31402,46870
,29600,45499
,30568,47317
,31713,45798
,30308,43899
,30056,46474
,31518,45790
,31378,46911
,28892,44763
,30089,44084
,31846,45640
,31451,44728
,31792,46103
,30975,44646
,31857,46295
,31927,45410
,30762,45322
,28376,40273
,29306,45710
,31804,46189
,30821,42973
,30897,43545
,30736,46717
,27766,44204
,30728,45467
,29332,46456
,31226,44887
,30403,46958
,31207,45861
,29722,45294
,29544,45272
,30413,43945
,32592,43841
,31658,45403
,28687,45223
,30273,44274
,29649,45100
,30242,43888
,30001,43057
,31469,44399
,31734,46293
,30194,43974
,28679,44857
,31805,47786
,29639,43920
,30786,43828
,30138,45972
,31645,47208
,29481,45044
,30664,43973
,29237,44457
,29241,45255
,30956,44177
,30418,44657
,33186,43524
,32604,42927
,30760,45924
,29000,46113
,30500,45100
,32691,45377
,33747,47399
,29227,43639
,28256,46556
,31224,44430
,29669,44764
,31589,43691
,30752,42842
,29480,44494
,29536,45838
,29841,45013
,29438,45456
,29523,45164
,34312,48755
,29750,44627
,30250,43330
,29914,44719
,31364,46251
,34201,45579
,29922,47165
,29989,44983
,31509,44947
,29334,44178
,31176,45220
,29877,45141
,31080,43735
,28598,42577
,30250,44975
,30980,45062
,31263,44804
,30558,42982
,23546,44360
,25573,44780
,21532,47321
,24237,44158
,23150,45300
,24230,43575
,24182,42995
,25497,44630
,24340,44827
,24089,45670
,24853,44478
,21937,44614
,20206,44751
,24014,44873
,21687,44979
,21910,43685
,22857,44913
,23965,43943
,25894,44842
,22628,46075
,25419,43906
,23581,45323
,23317,46060
,23142,45358
,22111,46728
,21778,45368
,21180,46364
,21778,43648
,23262,45277
,24619,43309
,21823,46630
,23171,43916
,24986,45528
,21894,45553
,23642,45424
,24368,44559
,22821,45763
,20705,45156
,22593,45289
,23196,42015
,21889,45210
,23114,43770
,20960,43907
,22358,44973
,21348,47547
,20459,45221
,23395,45244
,23223,45774
,23398,43760
,24262,42826
,24041,46280
,22984,45050
,20993,44150
,22116,47089
,22296,44995
,23089,45196
,20887,43671
,22731,44689
,20848,44658
,22850,45783
,23292,44226
,24581,42479
,24009,40481
,24431,44071
,25890,42857
,23364,44594
,23560,45345
,22335,44581
,23525,44402
,23472,42592
,21585,44932
,20582,45959
,25500,47603
,20910,46307
,23086,44507
,24480,44200
,24217,45276
,25177,42247
,23661,43901
,23530,46214
,24222,46031
,23540,46249
,22653,42993
,21390,45195
,23972,42333
,25901,45959
,23049,46303
,24173,42512
,24429,44491
,22692,46645
,22943,46047
,23296,41980
,22009,45047
,26138,44924
,21295,43673
,21975,45075
,23609,44895
,23460,47149
,23302,45363
,24028,45179
,24885,46243
,24134,44700
,22102,42383
,24732,44326
,22650,44599
,23958,43121
,24637,44635
,23443,44200
,24538,43590
,22753,44896
,22988,44118
,20058,45994
,20242,44737
,25485,47105
,21892,44677
,25214,45978
,27034,45408
,22228,43134
,24676,43516
,22714,45420
,21762,43634
,20656,43529
,25217,45683
,23000,44680
,22065,46398
,23656,46993
,21105,45331
,23451,44560
,25001,45627
,22208,47545
,24559,45955
,23380,43227
,22711,44137
,27120,46386
,25359,46497
,21313,45338
,20796,45252
,26277,46870
,24322,44460
,24053,47675
,24655,43256
,23468,44180
,20234,45802
,23232,45993
,23335,44159
,25373,45642
,25030,44573
,22267,42799
,24209,47858
,21951,43577
,56176,36609
,59462,34644
,57364,38191
,58261,39244
,55214,34719
,56892,36749
,55705,35150
,59028,34433
,51119,34201
,54092,34141
,54902,35784
,56619,39634
,57706,36957
,58015,33030
,58207,32668
,54759,34673
,56262,31753
,57302,35955
,53683,36353
,56654,34800
,56001,35127
,51819,34952
,53589,34387
,55126,35679
,55951,35172
,55962,36357
,57090,35856
,55961,36119
,57952,35957
,54804,34530
,56079,35838
,55264,37963
,56912,35113
,55952,34236
,54560,35032
,56076,35702
,56576,35512
,54915,34318
,57466,37210
,56290,36371
,55884,33627
,54867,34149
,57676,32271
,54736,36726
,55909,35079
,52540,35742
,55673,36783
,56571,36615
,56853,36827
,56634,36092
,54797,34991
,56083,34642
,57324,34734
,56644,33949
,56599,31660
,56909,34845
,55175,36385
,55355,35132
,57163,32632
,54656,35199
,55689,35957
,56210,37841
,56420,33286
,57009,36334
,57114,36454
,55423,35207
,54628,35291
,55716,34829
,55690,36922
,58721,31746
,57952,36070
,51985,34337
,58641,32430
,56192,35316
,56985,35542
,56465,36117
,57200,35693
,55891,34988
,58275,34756
,56789,33822
,55176,34355
,58714,33665
,55969,36361
,57499,36311
,56688,33167
,54920,35189
,58069,35003
,55914,37384
,55815,35267
,57936,38129
,56861,35184
,56861,38405
,54781,34591
,55682,34915
,54042,36812
,56237,35712
,55828,33876
,56932,34467
,55823,36440
,54195,36520
,57430,34173
,52061,36486
,56465,35823
,55387,34283
,56115,34542
,58287,35455
,58122,34536
,54879,35558
,56704,37607
,54624,33896
,55040,35677
,56966,36054
,55765,34591
,54698,36576
,54640,37322
,56910,36503
,56505,34457
,55554,34429
,55308,34833
,54795,38573
,58551,34542
,58552,34610
,54441,36098
,55130,32613
,57531,34633
,57117,35949
,53109,36784
,55451,34185
,55902,34462
,56280,36718
,60540,34103
,57818,36474
,55106,35479
,57263,34076
,56080,35833
,56863,33600
,58485,35736
,52366,33053
,57484,33755
,52702,37078
,54155,33837
,54147,34725
,55576,35700
,55113,34231
,56397,33198
,56312,34576
,55244,36679
,57107,35175
,56661,33449
,56695,34640
,56617,59228
,57407,59011
,58901,60114
,57352,60812
,59438,56138
,57806,56025
,56503,61166
,56656,59358
,60170,57766
,58685,61322
,57369,60485
,55600,58573
,57043,58533
,59247,57869
,58089,61808
,57935,60848
,56349,57876
,56204,60259
,57641,60726
,60182,57521
,60022,56705
,59962,57459
,58378,59625
,59183,58245
,60186,59053
,56402,60540
,56630,61148
,55643,56983
,57911,59161
,59977,60098
,57235,58560
,58478,61185
,57070,61127
,58937,59801
,60236,58666
,59205,61100
,59632,59033
,58405,58920
,57021,59529
,58016,59802
,57012,58442
,57109,59398
,58320,58589
,56113,58391
,59556,56505
,56852,60804
,56330,57895
,55965,58019
,56902,58672
,57580,59406
,58353,62374
,56977,59124
,56207,58396
,56837,58776
,57860,58007
,59493,59925
,56965,55756
,58453,57611
,60288,59039
,56472,60292
,57270,58393
,57411,57810
,54495,56286
,57471,60708
,57040,59231
,55069,58403
,58582,60563
,58507,59221
,55963,58727
,58266,59937
,58350,59869
,57996,57100
,58359,59267
,56736,59120
,57191,58526
,58178,57912
,58133,59559
,60144,59867
,58858,58838
,58041,57627
,57871,57993
,57937,57398
,59274,57515
,58686,58126
,56089,59453
,59235,59746
,59003,61704
,57100,58084
,58711,59506
,56822,57104
,56951,60091
,58351,58972
,54707,58958
,56907,60861
,56458,62279
,56179,60407
,59771,58620
,57474,61592
,59145,57682
,58755,58852
,58171,59816
,58955,59061
,60558,58668
,60861,60660
,56223,58061
,55315,59105
,59297,57367
,57811,61984
,58264,58004
,56017,58866
,57858,56213
,57465,60338
,59063,61023
,56919,61704
,57420,56995
,56193,57306
,59212,58881
,59520,57478
,58805,58937
,58643,62544
,60648,59950
,57662,59776
,58328,59426
,59150,57549
,61702,59116
,55775,60586
,60172,57152
,57689,60812
,55641,58329
,55762,60953
,58683,56655
,57150,58278
,57181,60791
,60349,57522
,58681,58891
,58624,59242
,57407,59508
,54651,60660
,58807,58596
,59630,59564
,57108,59720
,56242,59503
,58202,60472
,57838,58760
,56085,59393
,55757,59177
,58911,56004
,56167,58614
,60299,57769
,59461,57251
,35512,36208
,33376,36551
,33828,36597
,36931,33530
,36370,38758
,36729,36670
,33514,34146
,36407,35495
,35630,35459
,34820,37180
,34921,35483
,37318,35818
,37576,34698
,36717,38099
,38530,37831
,39377,39534
,33950,37142
,34990,35506
,34783,33974
,36192,38539
,34219,37328
,34555,35089
,34158,36693
,36053,35896
,36195,37293
,36958,38782
,35325,37788
,35221,36740
,34808,33214
,35643,36981
,38225,37518
,36711,36937
,35197,38633
,35500,37367
,35899,36838
,35269,35770
,36065,35605
,38896,38874
,35552,35365
,34086,35320
,34657,37659
,36377,38481
,36208,36470
,36174,35366
,35185,36969
,36226,39249
,34648,35191
,36476,38652
,35034,37601
,32973,36846
,34943,35113
,36629,38099
,37612,38699
,35600,34522
,35161,35366
,34184,37127
,33194,36579
,37311,37517
,38567,35265
,35982,34177
,37489,35913
,31762,39479
,35747,35961
,35928,38445
,35638,32848
,37050,38142
,33116,38702
,34633,34884
,34746,37190
,33487,38175
,35714,35353
,36116,35530
,37434,37095
,35150,37142
,32495,35895
,34964,36011
,35946,35699
,36199,36941
,33997,35399
,35602,35147
,34553,36316
,38155,36389
,35358,36948
,33790,38439
,36047,36617
,34123,37958
,35751,36873
,34499,35534
,34955,36224
,32527,34568
,34988,36892
,37289,35052
,34333,37089
,36922,38430
,36639,38543
,35862,37994
,35706,35668
,35082,36107
,36706,35481
,34908,37903
,37647,35555
,35783,37166
,37402,36276
,35670,37962
,34946,37735
,33915,36655
,34505,38899
,33015,34994
,33736,36497
,35715,38983
,36897,38179
,37190,36876
,36506,37796
,35348,35091
,35158,36723
,36329,34019
,34189,35807
,35355,35916
,33189,39289
,37321,36461
,37955,38784
,33228,37025
,34885,37762
,36792,36418
,35316,33423
,33494,36540
,33419,32877
,33289,37628
,34116,36691
,36360,37624
,34564,38714
,35715,35049
,36260,35245
,35993,36755
,34947,37142
,34177,36131
,34666,35740
,34429,38562
,35129,38752
,36452,37390
,35397,38645
,38050,37010
,34639,35788
,32388,32912
,34595,33970
,35045,35212
,37004,35221
,35398,34770
,35668,37707
,35582,36628
,35758,61383
,37510,58769
,35937,58405
,33096,58751
,37411,59122
,37356,56126
,36024,58025
,35873,57697
,35043,57610
,38898,57418
,35756,56883
,35770,57807
,35393,59625
,32705,60775
,36112,57732
,37949,59005
,35942,60910
,35962,58314
,34975,56890
,36383,56022
,33530,56923
,35784,57029
,37004,59517
,38885,57734
,34875,58388
,35249,56647
,35783,56895
,36231,58437
,34200,56925
,34007,59541
,36695,57484
,38784,58347
,35592,58810
,34117,58619
,39624,59103
,33206,57563
,34604,59669
,36244,56138
,36930,55331
,37122,56772
,35993,58661
,37553,58116
,35848,59537
,38069,55943
,36066,57264
,32124,60045
,34899,58230
,34273,57126
,35111,58432
,35084,59440
,36584,56278
,37828,57851
,37832,60136
,37545,58893
,34908,60044
,34987,58420
,35275,57488
,38898,59326
,36797,57177
,36422,58722
,37089,58692
,38608,57465
,32095,59743
,35152,57713
,33558,57552
,37697,57060
,33063,56115
,36333,60512
,35787,56466
,32799,57530
,34681,58065
,35761,58216
,37112,58015
,39732,56921
,34913,61426
,37747,58700
,34791,58145
,34951,57945
,37506,58549
,35193,58621
,37935,58459
,36620,58389
,38451,59019
,34554,57983
,34159,58997
,36524,55728
,33395,58278
,34766,58226
,35824,58802
,38495,57407
,37013,61138
,34997,58446
,37319,55871
,34725,59050
,33199,57554
,35014,60821
,34503,57015
,37606,55666
,36898,56928
,39365,57730
,36491,57842
,34747,60283
,37080,56004
,36613,57187
,36411,60222
,36755,56506
,38026,57280
,33856,55956
,35289,56894
,37266,56882
,36339,59245
,34473,57654
,38077,58627
,36499,57389
,35972,56943
,34357,59322
,36181,57684
,35960,57198
,35581,56575
,35128,56951
,32935,60307
,32599,57242
,35589,56711
,33182,58518
,37456,56022
,35008,57917
,36887,58929
,34622,57152
,36318,58811
,33776,55987
,36379,60152
,34697,59793
,36394,58547
,34136,58308
,38034,58930
,34660,57638
,35981,57014
,36088,59612
,35259,57182
,35608,59727
,38215,56305
,35757,57154
,39108,56012
,35532,57502
,36791,56396
,36624,58909
,34771,59105
,36021,57104
,34483,57326
,36590,58007
,30519,60575
,29428,57368
,30187,59977
,34340,61421
,29923,60355
,30489,60077
,30296,61349
,30866,61518
,30182,61719
,28368,60908
,31926,61137
,28683,57407
,31067,60362
,30509,59837
,27876,58342
,33271,57782
,29384,62711
,29900,61662
,31942,60281
,31730,60252
,30227,60750
,32813,61223
,29611,60580
,28715,59480
,29218,59842
,28632,58133
,31228,60401
,28905,58423
,28036,60557
,30812,58352
,29795,59553
,31180,59521
,29076,64142
,31575,58716
,30790,59476
,30263,59404
,30148,61153
,31320,60589
,32172,60307
,29673,59444
,31229,60305
,30843,59648
,28195,61205
,29994,62114
,31175,60213
,27161,58169
,29683,60458
,32238,58780
,27350,59069
,30122,58919
,31670,61143
,28257,58652
,28721,59763
,30131,60185
,33108,58316
,28220,62367
,31245,59699
,28369,62327
,30721,60879
,31953,59220
,32018,59149
,30811,58156
,29254,59416
,29697,59137
,31812,61323
,30354,61456
,28198,60605
,30924,57500
,29247,59944
,32147,60334
,31134,58676
,31721,59362
,29427,60395
,28783,57383
,26472,60530
,31018,59733
,30262,60642
,30235,59736
,30890,60903
,30918,59961
,32966,61052
,32249,59188
,30408,63018
,30359,60314
,31477,59334
,32602,62162
,30499,61558
,31078,59348
,31397,60532
,30013,59736
,28794,56826
,29754,63112
,32753,58596
,27987,58149
,30571,61249
,30539,60470
,29782,61349
,29079,61553
,29691,61444
,32169,61430
,32179,62498
,28294,60680
,31265,60482
,32587,59699
,30750,58834
,26974,62911
,31076,58489
,30840,60498
,32539,58342
,27896,59461
,29766,58683
,29790,59882
,31982,57681
,29949,60400
,31465,60313
,29115,62802
,27314,59327
,29317,64018
,29895,58833
,30885,61062
,28036,58962
,30823,59078
,32856,59784
,30362,59196
,28541,58430
,27471,62782
,29643,57325
,31582,61732
,32004,62660
,27038,60527
,30099,59667
,28169,57906
,30742,63924
,32581,58888
,30334,59872
,31245,58928
,31379,58565
,31448,59927
,31470,59923
,28765,57296
,27973,59365
,29885,58983
,31657,59010
,29468,61338
,32938,61527
,28751,58360
,29694,59689
,29540,59352
,28078,58870
,29067,60173
,27091,54253
,25124,57119
,24089,56850
,25810,55297
,25926,58142
,24426,55480
,25210,58815
,25417,57487
,24312,54819
,26499,54391
,24887,53865
,25528,57475
,26769,56753
,28476,54046
,24636,56094
,24740,57086
,28047,56907
,24741,56290
,26841,54215
,27701,55093
,24882,54495
,26259,55919
,29105,56069
,26732,56854
,26151,55931
,24476,56502
,27713,57427
,27368,54677
,26140,55358
,23516,55985
,26211,56561
,27130,55011
,25948,55864
,25596,58567
,27205,55025
,28236,54891
,27897,57731
,27478,57943
,25888,54491
,27173,54448
,27532,59289
,26674,53557
,25846,54507
,25991,58191
,27551,56259
,28449,55196
,27670,56086
,26945,58804
,25177,55242
,25339,56578
,27126,54499
,25718,54991
,26385,53305
,27360,55934
,27288,56112
,27361,56240
,25878,52642
,26181,57969
,27473,55944
,25369,55414
,25655,56158
,26016,56218
,24424,56102
,25310,58129
,29533,56041
,25550,58911
,26789,53709
,26946,57437
,26058,58097
,26555,55832
,24231,55657
,28028,57612
,27149,56242
,28224,57542
,24968,57913
,25717,58732
,28411,56537
,25109,56417
,28547,57790
,26228,54976
,26848,55785
,25848,56325
,22974,56798
,26160,57328
,27525,54513
,24142,55523
,28861,57184
,25822,59362
,25222,55964
,24703,55336
,25646,54908
,28298,57069
,27859,55067
,25189,57568
,26965,56632
,27120,56152
,23696,54533
,24570,55662
,24288,57687
,27682,54025
,28689,57577
,25866,55125
,28892,56367
,27181,56894
,27722,55535
,26440,56269
,25068,56180
,25350,56240
,24894,55489
,26916,58640
,26856,58680
,26989,55322
,27587,57391
,28152,57574
,26384,59489
,27605,55558
,25129,54989
,25784,57903
,25439,55060
,27859,55438
,27879,53983
,26119,55228
,24690,57613
,26625,55961
,25593,53412
,28416,57001
,27467,57447
,25343,54674
,27552,55144
,25340,53689
,28399,57539
,24710,56117
,26359,56268
,27427,54209
,25496,52962
,25661,57052
,26695,59233
,27268,55029
,28234,53574
,24946,55995
,24659,58265
,23172,56902
,25794,56088
,28875,55935
,25031,56372
,25766,56091
,25819,57753
,26560,56548
,24824,54698
,27012,53620
,19025,62636
,19900,60714
,18954,57047
,19344,62840
,17751,61428
,21627,58160
,22326,60658
,19382,63395
,21972,60531
,20134,61633
,20702,61057
,21312,59368
,18481,60786
,18767,60985
,20334,61581
,19526,59848
,22697,58797
,19294,59703
,20526,60843
,18772,60025
,18039,59768
,21628,60449
,19021,61319
,18575,61722
,20836,59046
,20105,59016
,19699,62296
,18817,58878
,18943,58109
,18815,62114
,22810,58901
,21185,60062
,20509,59928
,20804,60148
,19594,59972
,18197,61377
,19537,61008
,19595,58362
,18875,60987
,21148,58036
,20417,60494
,18640,59549
,18415,57704
,19158,59031
,19098,60621
,19527,58633
,17848,61122
,21104,59172
,19291,57452
,19934,60059
,19522,63016
,18689,60259
,18453,61868
,18837,60633
,21045,63698
,18910,61556
,19054,59966
,19627,61579
,19455,56683
,19555,60570
,18121,58870
,20010,59733
,20066,61008
,22093,61464
,18862,58907
,20201,60795
,20130,59952
,16642,61808
,19757,56557
,19668,59725
,19400,59155
,19361,60098
,19050,60020
,20802,61143
,20315,58888
,20089,62129
,21129,61824
,19037,59703
,19762,60770
,20528,60152
,18805,60199
,17439,61792
,18764,59172
,19267,62597
,19058,56889
,18920,61294
,18703,62842
,20482,60234
,20238,61647
,18728,61944
,22126,61424
,20128,61744
,18698,58855
,20003,60955
,19073,60999
,16391,59781
,18783,62031
,17429,60166
,18201,61721
,20045,61007
,19904,61451
,18277,62796
,17796,59483
,19306,60051
,21523,61439
,19698,58963
,20282,58698
,20513,62539
,18124,58780
,19041,61593
,18552,59781
,20263,60620
,19681,57745
,21673,59416
,20812,62779
,19719,60027
,20454,62980
,17880,59110
,20713,58152
,22211,58498
,18661,59697
,21799,60449
,20230,60131
,20187,59082
,19560,60184
,20009,60409
,19007,61003
,18182,57369
,20612,58724
,16944,58772
,19439,61775
,19685,60178
,20653,62961
,18288,60306
,21349,61968
,21514,61173
,20433,59887
,18757,59265
,19628,61511
,17601,61680
,20274,60701
,20308,60378
,20970,58660
,18730,60090
,19963,60202
,21348,60804
,19728,61905
,19366,62085
,18830,61493
,19969,62625
,18909,52601
,17116,51058
,16100,53394
,16090,53751
,20166,55842
,15917,52931
,15656,55281
,18871,51566
,19414,54082
,16437,52739
,16028,55929
,15972,53146
,16536,53987
,17538,51935
,18616,53201
,14920,50298
,16174,53398
,19439,53600
,17104,54251
,19058,51974
,20108,52854
,18266,56898
,17090,51246
,13744,52654
,16054,55988
,16600,53018
,17561,51049
,17282,55598
,16817,51881
,18255,53443
,17770,54173
,14731,51470
,16075,54791
,15392,53579
,17559,55061
,17360,55652
,14388,53648
,15825,51910
,17510,52863
,17566,57245
,18051,55242
,16594,53441
,16204,53729
,17390,56678
,14977,52231
,16886,55893
,14490,52708
,16637,55718
,15752,52224
,15199,53223
,19510,54266
,16992,51815
,16195,54362
,17567,50758
,15793,51066
,16118,53752
,15910,55839
,17444,52150
,16701,54462
,18390,54942
,16024,52949
,17396,57433
,17185,53896
,16929,52931
,16473,50288
,19632,53822
,18228,55601
,17002,51945
,20576,52371
,17214,54634
,18039,52392
,16200,53672
,17989,52479
,16196,56850
,20426,55459
,16328,52639
,16901,53816
,14983,53966
,16069,52884
,16166,54679
,16394,51979
,14029,53667
,16543,54520
,14194,54889
,17526,54728
,14416,54620
,15789,54786
,16844,54821
,17589,54560
,18786,52874
,14749,53899
,17675,52826
,15589,56047
,16412,53126
,18310,54461
,15914,53383
,13959,53191
,18551,54688
,17436,53910
,16530,51754
,17108,54583
,18315,55201
,16733,54802
,15211,52424
,17296,54776
,17220,53722
,16512,55230
,17191,56131
,17849,53689
,14508,53392
,17680,54393
,16998,52999
,17369,56734
,16868,53705
,16577,53157
,15724,54447
,19695,53726
,14816,55172
,16724,55595
,15903,55703
,14952,51337
,15669,56859
,18263,55490
,17212,54748
,16308,53650
,17535,53169
,16694,54124
,16727,55149
,19648,54157
,16082,51794
,16517,54872
,17584,53227
,18154,55292
,13742,53876
,16838,55160
,15291,54334
,17148,54571
,18489,51924
,17334,54335
,17094,53425
,19556,52167
,15922,53981
,14801,53213
,15873,55374
,16346,54075
,15942,56662
,16933,53507
,17570,54450
,16512,50780
,14561,54365
,11758,49219
,8509,49110
,10643,50924
,12244,49180
,8668,50711
,11661,52373
,10710,50492
,9441,50343
,10203,50042
,10444,51042
,11707,50831
,10932,49591
,10055,48235
,10793,49879
,11346,49957
,12329,48590
,7306,50995
,11304,50748
,10547,48630
,8558,49409
,9815,50653
,10895,49868
,10511,49865
,10968,50319
,8626,51634
,12700,50715
,11648,50442
,11109,51972
,9348,50510
,8881,51111
,12093,50390
,9631,49449
,11266,47149
,9750,52405
,11972,49353
,9139,52976
,11504,49504
,9596,47780
,10112,52474
,10809,50800
,11608,49849
,12909,50774
,11096,51227
,10558,50509
,11133,48302
,8537,48947
,12548,51547
,9069,49741
,7978,51465
,10282,52410
,12271,50801
,10670,49473
,10459,50893
,11233,50321
,9652,49848
,9310,50120
,7847,47923
,10681,48326
,10779,50685
,9547,51751
,12640,49781
,8744,49618
,11504,49613
,11317,51837
,10360,51110
,10893,49089
,8608,48734
,8184,47904
,10734,50592
,6726,50619
,9254,50786
,8430,51751
,8412,50016
,7820,49655
,9143,49825
,11636,49520
,8633,50850
,8329,52004
,12866,49685
,10864,47595
,11402,49037
,10935,49427
,10531,50395
,8351,49532
,11738,49383
,11476,47853
,9222,51346
,10625,50748
,9912,51973
,10457,49183
,13815,48988
,10458,50079
,9284,50452
,12447,51465
,9095,50175
,11303,50343
,12291,48192
,9704,50842
,10909,50127
,8770,51221
,9633,50259
,10215,49540
,10500,51664
,7655,49235
,12231,48044
,12056,49839
,12989,48969
,8430,50059
,10967,51076
,9484,49619
,10754,48878
,11001,48738
,10219,49251
,9783,49864
,9593,51293
,7636,50773
,9374,48912
,7403,51446
,8488,49132
,6877,51095
,10075,48613
,11682,49377
,7365,50119
,10640,51413
,10325,50271
,9507,52117
,13322,49302
,11021,50533
,10948,53029
,10981,49305
,10581,50713
,9337,51408
,8769,52311
,10633,50668
,11264,52550
,9934,51608
,10484,52679
,9548,49906
,9943,49251
,9219,49078
,9704,54563
,11749,48185
,9725,49372
,11138,48042
,9725,51363
,10455,50923
,6812,50588
,10896,49165
,10714,49809
,9899,49825
,3338,55373
,5467,53449
,4515,54198
,4103,54138
,4880,52026
,5551,54081
,4818,54966
,5561,54946
,5313,53165
,6657,54030
,2946,53519
,5335,52707
,6960,49868
,4170,52692
,3087,54671
,3957,54917
,3559,52709
,1751,53803
,6509,52969
,6605,54026
,5923,55070
,3491,55102
,3349,52989
,6873,51646
,2659,53491
,3437,53344
,4705,54499
,4929,51048
,2827,53608
,5927,52888
,4322,52748
,4955,52009
,4671,53807
,4714,57001
,4979,54941
,7352,50106
,3816,53652
,2236,53293
,5039,52221
,2895,53486
,4342,52387
,3552,57334
,2689,54448
,4915,55806
,2313,53188
,4370,53405
,2855,54469
,5484,54333
,2777,56320
,7256,53698
,5435,52033
,4450,56025
,2046,55342
,6618,53179
,5842,52841
,5307,54059
,6928,53837
,6501,54599
,5849,53803
,4082,52913
,4045,55500
,3632,53074
,4377,55602
,4948,56325
,7543,53366
,5671,52955
,5454,53781
,2497,53171
,5723,53999
,3471,54498
,4734,55609
,6656,55193
,4525,54327
,3899,53619
,4290,52333
,5984,54785
,5365,53430
,5701,54322
,5909,53917
,5607,53420
,6763,54572
,4978,54499
,4293,55401
,6172,53566
,4899,54374
,4316,54712
,5698,52940
,4194,52747
,4412,53232
,5461,55324
,5217,55918
,4525,54739
,3414,54902
,4864,52852
,6435,52672
,3715,53236
,4207,55247
,4373,53471
,4122,53342
,4079,52468
,6187,54536
,5336,54167
,6597,53337
,2559,53516
,4705,54880
,2975,54777
,3565,52922
,5706,53205
,5141,51928
,17,53801
,7617,54283
,5712,52647
,4197,53856
,4687,53543
,4831,54582
,3988,56542
,3841,55068
,5204,51722
,6164,54498
,5562,53837
,2642,55241
,4048,54140
,4482,55505
,4025,53331
,3567,52072
,6202,56365
,3910,54867
,2580,55663
,6146,53878
,4740,54190
,5481,53730
,5884,51941
,3993,54771
,4184,56655
,5039,52327
,5325,54592
,6565,57240
,5982,54491
,3280,54325
,5083,53207
,4593,56428
,5016,56337
,4222,53879
,4716,54264
,4667,52631
,6681,54199
,6631,53784
,4364,54081
,7497,53513
,3571,53101
,10139,60124
,8580,56978
,9277,60551
,10040,60059
,8531,62942
,12231,62033
,11907,59062
,10162,56940
,11332,60501
,9481,59972
,7915,59830
,10245,60721
,12795,59389
,12134,61178
,8481,59528
,12399,59721
,7865,58669
,9872,59262
,10813,57597
,9781,58820
,11954,63340
,6577,62194
,10963,60408
,10824,56861
,10804,59547
,11335,61153
,8460,59979
,10541,58366
,9325,61499
,9852,58306
,6623,59654
,11949,59100
,10810,60398
,11982,59504
,11058,58087
,8613,58180
,9987,59588
,10495,59902
,11444,57864
,8427,58780
,11968,58691
,9015,59230
,14490,59659
,8338,60319
,11831,59081
,12465,58616
,10254,56364
,11175,59264
,10081,57737
,11585,60290
,10567,61071
,11377,61415
,8542,59770
,9242,60721
,8353,59821
,10409,55838
,10603,59956
,10216,60154
,11096,57117
,10677,55312
,12474,57795
,10812,61715
,11080,57594
,13095,61223
,12412,59050
,8809,58271
,12778,62049
,10449,62189
,8681,62818
,13671,59637
,8149,60049
,10093,57968
,12202,60952
,10837,57202
,10700,60580
,9656,58216
,9326,60606
,11496,58947
,10599,60752
,10975,59231
,12278,57902
,11545,59063
,12886,61092
,9819,58554
,11279,63706
,10728,62127
,9858,59272
,11481,59797
,10315,60301
,10866,59140
,9427,60973
,12008,58420
,9820,58508
,13050,61662
,7736,60919
,10720,62473
,12942,61313
,12029,60342
,12909,58933
,9916,60240
,12191,57368
,11740,59652
,10271,60510
,10218,60133
,8147,57929
,13615,60184
,13190,59501
,11815,58248
,8577,61455
,12671,61339
,8378,60945
,9841,59925
,11304,58688
,12285,61395
,10338,60470
,9530,61240
,10941,57507
,9620,62215
,9706,59947
,8247,60295
,10546,60683
,10319,62431
,9412,59366
,8857,60404
,11005,59848
,12812,61175
,9107,58547
,9717,60903
,10623,61373
,10473,60989
,8189,57252
,7561,61021
,11639,60658
,13437,62373
,8957,59639
,10084,61366
,10415,61631
,11583,60356
,9882,60566
,11638,60356
,8932,62598
,9182,62144
,8948,58608
,10338,58184
,9538,59116
,8656,60454
,11036,59053
,8730,58342
,8780,58483
,9888,60609
,42763,55722
,41745,55036
,41434,56533
,45509,54192
,43605,54433
,41430,54372
,43808,56317
,43051,54413
,46893,54869
,41590,54991
,43097,55525
,43588,53879
,44528,55913
,42669,54424
,45186,55167
,42844,52521
,41186,55401
,40674,52839
,43073,54867
,43931,53583
,41558,54649
,41560,56240
,43818,54730
,45242,56640
,43226,55759
,44538,54319
,43280,54454
,43969,56174
,42512,54055
,43290,55799
,41951,55065
,43821,54110
,43450,54663
,45458,54605
,43952,55424
,43954,55865
,42257,53491
,42030,55457
,42067,56294
,42007,55049
,45090,57235
,42504,56440
,43739,54783
,43850,52909
,43737,56928
,42794,54549
,43371,55785
,43518,55141
,44904,56368
,40369,55514
,45665,52311
,40552,54754
,44252,55655
,42577,55992
,45073,55291
,43964,53370
,41562,55042
,43925,55240
,43690,55642
,42303,56594
,42226,51863
,44123,54027
,44315,54133
,42066,56748
,43396,55572
,41960,56404
,42805,56345
,44162,54951
,46137,56392
,42298,54687
,43438,54681
,46076,56226
,41660,54312
,42939,54538
,42177,55116
,43734,56703
,45665,53642
,44114,56514
,42200,56200
,41539,54557
,41348,52206
,43392,54968
,42196,52532
,46337,57566
,39975,56097
,41505,57046
,40720,56335
,42144,56095
,42287,55605
,43050,53709
,41587,57430
,43049,54257
,46316,56515
,42618,55808
,43338,56219
,43972,56345
,45375,56319
,45540,54967
,41532,55339
,40587,54291
,43480,54527
,41328,54662
,44834,56210
,43772,54935
,44852,53225
,43701,56882
,42741,57727
,43803,53692
,41794,53379
,42842,54189
,45049,54051
,44577,53785
,43784,52818
,43237,54823
,43095,55997
,44120,55931
,43118,54544
,44971,53046
,42756,54099
,43191,54856
,44721,57831
,42907,53491
,42608,53636
,42497,55648
,45022,54903
,43588,53626
,44552,55510
,43148,53760
,41965,56183
,41983,53565
,41742,54194
,44306,54281
,43931,55530
,44445,54947
,42546,55250
,41207,54110
,44292,56530
,41982,56502
,43888,55495
,43245,53795
,44091,54288
,44955,53409
,43586,52147
,45270,52179
,44007,56241
,43296,53627
,44138,54632
,43972,56207
,43394,55343
,44538,52532
,47600,59005
,47503,59980
,47963,59842
,47199,59060
,47200,59031
,47367,60872
,46480,61329
,47486,59732
,47776,60314
,45952,59268
,49808,58728
,45576,57409
,45682,57127
,46415,58450
,48434,59614
,47967,59323
,47389,58806
,46377,57225
,47740,60151
,49007,60804
,46323,60485
,43603,60576
,47980,60330
,44924,58440
,47602,58751
,46116,57531
,46677,57968
,48147,58486
,46224,58268
,46816,59424
,46930,62762
,45934,61462
,46588,58873
,46887,58903
,48268,58780
,45014,57009
,47816,59654
,44602,58814
,46698,59409
,46463,59710
,47870,57743
,48548,57337
,44610,61047
,45509,57926
,48267,59212
,46782,59290
,48378,60485
,46232,58425
,45366,60734
,46923,60229
,47844,57963
,47468,58916
,46188,61604
,47670,60737
,45098,58056
,47131,57719
,46205,59883
,47080,59681
,46949,57454
,47324,58063
,48067,58637
,47296,56836
,47044,58699
,47703,58903
,48393,58921
,47211,60068
,47879,58868
,50084,60284
,46357,57151
,45764,58065
,51139,59585
,47557,60277
,47808,58754
,47613,60401
,46165,58694
,48042,60907
,48454,58189
,47375,60822
,46681,59373
,50896,58701
,46035,59237
,47194,57610
,46728,59448
,50043,59048
,49611,57641
,47518,59285
,48266,58415
,47866,61415
,46046,58977
,48368,57886
,48242,59279
,47947,57572
,46228,58634
,46641,58497
,46928,61322
,44650,60694
,47474,60349
,46650,60203
,48738,59314
,48484,58286
,48278,59764
,45942,62277
,46112,59260
,48262,57550
,48789,58150
,46611,59528
,45960,59176
,47407,59374
,46861,63137
,45700,58817
,44615,57635
,47109,58064
,47323,59670
,48733,59581
,47212,61159
,45345,59997
,46070,57360
,46353,59003
,48271,58900
,44663,57802
,47806,59657
,47058,58373
,46933,59269
,48613,56424
,47571,55890
,47570,57320
,46845,61271
,46708,59648
,46518,59404
,46238,58925
,47693,59141
,48098,57107
,46352,59510
,51041,59578
,46818,59467
,46731,58185
,48368,59001
,46966,56405
,46175,58661
,45889,61544
,45782,57022
,48184,59753
,47975,61610
,45284,59691
,45657,57651
,48382,60296
,47369,59613
,45278,59639
,48789,60495
,47195,59087
,16310,42838
,14529,44667
,15639,42673
,11073,43577
,15360,41918
,14401,44849
,16163,45074
,14973,44050
,16007,41508
,14543,43762
,12094,42449
,14766,44432
,13004,45304
,14189,42315
,15175,43650
,13782,39434
,12059,41470
,12879,45693
,14973,45213
,15241,45564
,13915,43278
,13038,43418
,14688,44005
,12675,42095
,11741,45272
,14067,44806
,14302,43181
,13145,42257
,13343,42577
,13702,43245
,12288,42992
,15291,46302
,15612,45247
,11222,43005
,14932,43758
,12921,43343
,12244,41823
,14719,44066
,13725,44902
,15772,42391
,13795,42806
,14738,42718
,11715,41855
,13292,45173
,16843,41532
,17354,43900
,13118,44260
,13170,41517
,13962,41988
,14895,41365
,12669,43767
,15424,39497
,13938,43472
,11977,43295
,13331,41632
,15004,42307
,14950,43226
,15617,44932
,14015,43167
,13283,43735
,13832,44314
,12018,44436
,14611,43550
,14824,42393
,12657,42917
,15101,43498
,14247,42987
,11540,42854
,12209,44229
,14853,43182
,10527,42775
,14839,42349
,13645,43424
,15836,45980
,13340,43920
,16772,41789
,12601,43739
,14238,44307
,13509,42666
,14816,42924
,15190,43388
,14932,44282
,14821,42289
,12976,42893
,17399,45218
,14606,45093
,13376,44224
,13033,46582
,13673,42787
,14350,42175
,14133,40193
,13989,42197
,13672,43291
,12838,44094
,13437,43921
,16969,42472
,12812,42961
,12209,42018
,16231,41723
,14920,42663
,12914,44367
,12302,44075
,12807,43995
,14330,44486
,11277,43750
,13627,42127
,11720,43669
,12250,43253
,13778,43055
,14532,45517
,11505,42400
,14732,41301
,14242,46062
,14312,43885
,11342,44595
,14896,42618
,15861,42881
,14941,44280
,15865,42124
,13298,42991
,12511,44211
,15108,42189
,13058,43476
,13309,42292
,13911,43400
,14036,44957
,11008,43793
,13745,44363
,13766,43381
,11975,44335
,12707,44732
,15826,42516
,14242,47449
,13990,42565
,14823,42317
,13562,41690
,14782,44208
,15069,44471
,12556,43853
,12893,43813
,13707,42127
,14655,43612
,14991,42009
,13431,43471
,12924,43633
,11343,41951
,13674,42904
,17293,42226
,11039,38831
,12492,41072
,16236,41968
,13824,37378
,17516,39586
,16923,36809
,14593,40118
,14683,36805
,17578,37686
,18855,38176
,15721,38939
,16293,36422
,15663,39807
,13864,41156
,14891,39609
,14193,37146
,15903,39953
,17830,37298
,17794,37799
,15970,35907
,17010,38367
,15778,37432
,16515,35083
,16414,36076
,14535,38111
,18387,37949
,19215,36537
,14089,36807
,15643,37071
,16539,36513
,17000,36353
,17057,37353
,16056,37834
,16086,38113
,16962,38535
,14022,38099
,16676,38732
,16495,36750
,14777,36426
,15634,37284
,14782,38036
,15693,39198
,17384,37851
,14906,38483
,16090,36549
,13682,38082
,13373,37561
,14929,36910
,13455,39284
,14958,38871
,15922,35696
,17164,38939
,16708,37864
,17502,36648
,15530,39657
,11914,37710
,15481,38312
,14645,40465
,16151,37404
,16747,38035
,15630,38976
,15141,37401
,17104,36620
,13473,39006
,18529,36608
,16734,39448
,15306,36124
,16048,39141
,17877,35739
,16193,36259
,15343,37844
,15763,38213
,13698,35566
,19528,39964
,14571,36397
,14823,37508
,15605,38513
,16362,36537
,15322,38153
,12555,38423
,14611,40424
,17053,38196
,16333,37721
,17174,38765
,15122,37037
,13837,35211
,15558,37593
,14938,35990
,17201,39074
,16367,37711
,16897,38659
,15494,37841
,16690,36665
,15223,37418
,15724,38079
,14074,37080
,15159,39396
,15122,37831
,16284,38255
,16008,38009
,16946,38537
,16208,36390
,15180,37909
,16087,39270
,16200,37577
,17428,37000
,17702,39962
,15264,35408
,14522,38615
,14940,40546
,16854,38380
,14592,40547
,14648,37330
,16115,38102
,14056,36197
,15945,37984
,14273,38241
,14968,38271
,14094,37526
,16079,38877
,16432,37688
,11298,38998
,15347,37166
,18713,37357
,12765,37819
,15543,37602
,14784,39342
,16996,38712
,17769,34464
,14948,39853
,18403,37768
,10693,40141
,18281,39185
,18128,40443
,17065,36790
,16074,37683
,15184,34812
,14791,38647
,19135,37713
,15071,35562
,14238,39602
,15356,37012
,14941,37337
,15401,40216
,18826,36811
,18195,36385
,13931,37862
,17319,37461
,15404,38869
,15739,38708
,15481,36730
,18564,36963
,9436,40722
,8542,37701
,7430,40079
,9579,39047
,9096,37851
,9463,37739
,8224,40782
,9667,37516
,11622,37865
,9529,37315
,7967,39056
,10436,38756
,8260,38043
,8808,39574
,14290,40911
,9675,38028
,9319,38400
,9076,38066
,8151,37838
,9709,39892
,9515,35854
,11591,36925
,8711,37483
,8024,36144
,10692,39078
,7915,36954
,9078,38726
,9195,38071
,11032,38088
,9906,39406
,9458,36547
,9184,38352
,6412,37952
,9610,39689
,11934,38933
,8508,36723
,10052,38563
,9327,37565
,7121,39344
,9770,40715
,8056,37976
,9431,38817
,10034,40439
,9154,38168
,10896,39037
,9614,35128
,9345,38311
,9816,36855
,9969,38510
,9796,36843
,12878,36872
,13513,38312
,11666,36169
,9569,37527
,13164,37091
,8339,39284
,14024,40384
,11278,40936
,9928,38347
,8701,37878
,11235,38829
,8419,39381
,10523,38109
,9598,38447
,9675,38100
,9615,38722
,7549,39530
,8358,37335
,11844,38738
,9151,38825
,10430,37727
,10513,37095
,7506,37673
,9795,36922
,8512,37861
,10012,37549
,8290,40018
,9835,40769
,10092,38952
,6605,38175
,9844,38755
,11441,37960
,11627,37781
,9467,34849
,9219,37350
,7804,38781
,8418,37342
,9970,40178
,9074,39973
,10651,40512
,10175,37026
,9145,39314
,8986,40435
,7646,39206
,11257,39453
,9543,37242
,10024,38894
,8227,39139
,10549,36779
,12545,38674
,10116,39406
,9403,37517
,9525,36439
,11196,37023
,9827,37829
,9522,38390
,11616,38833
,10805,37657
,10224,34459
,8725,37764
,7031,37680
,9676,41916
,9934,39710
,9686,39476
,9501,41285
,9063,39410
,9163,38171
,10952,38583
,8894,38929
,10238,39541
,13433,38254
,8954,39949
,11172,37441
,9213,35959
,9379,37976
,9468,39603
,9049,37487
,10357,34891
,9576,36772
,10941,39478
,10958,37100
,9275,39909
,11583,40675
,11476,37849
,9537,36878
,9485,36958
,7124,36867
,8965,37856
,9340,38358
,8361,38769
,10724,37525
,11357,37572
,11120,38765
,8944,37919
,10829,35138
,9125,40694
,10439,39606
,7821,38805
,9035,35859
,9350,38414
,3946,41094
,7437,41383
,3878,43413
,2514,41253
,6180,43890
,3182,40846
,949,44830
,6707,45098
,4134,42080
,5242,43347
,3119,39544
,7744,44473
,4431,44640
,2359,43442
,3506,39777
,8515,41905
,7002,41881
,5896,41093
,2835,43101
,7287,43328
,3471,45480
,3022,40247
,5126,43420
,4495,44091
,4248,43141
,6900,42068
,7206,43692
,5612,42097
,6143,40854
,3940,41188
,4239,43805
,4762,43144
,4003,42348
,5196,40134
,6124,42753
,7111,44657
,6136,44329
,7987,40216
,5849,43773
,5443,44511
,4617,40357
,5627,40629
,7785,43008
,5604,44310
,6958,42584
,5696,42913
,4664,43028
,5217,41805
,6256,41629
,5556,42645
,5972,41651
,4799,41632
,4568,43681
,7892,41377
,7826,43358
,5608,42777
,8651,41863
,4544,42128
,6216,41069
,8891,42189
,4524,44211
,4405,42650
,4777,41008
,3948,41917
,4222,42123
,7390,41422
,4505,42257
,3610,43589
,3718,43827
,3900,42414
,6176,43619
,6226,40019
,6081,42225
,4279,40599
,7229,41713
,6925,40172
,4553,39229
,3647,42965
,1533,41682
,2836,41512
,5555,41428
,5606,45229
,5954,41585
,4332,43772
,6531,43081
,2865,41704
,6250,43099
,5416,40089
,6506,41645
,7762,43414
,4470,43441
,3376,42779
,4407,41845
,4914,44536
,6052,42522
,3633,42132
,3420,40792
,6467,42420
,6405,42160
,4372,44685
,6181,43016
,4325,41754
,5944,41737
,4713,40041
,7231,42724
,6313,41902
,5078,43688
,3642,40640
,4268,42135
,4068,44238
,3738,41931
,4788,40317
,3829,40341
,4828,41150
,4547,45073
,6754,42157
,4298,38715
,8422,43250
,4621,41587
,6733,42887
,5971,44428
,6984,43913
,4320,42737
,3992,43765
,6156,43763
,5741,44195
,4992,42545
,6387,41682
,5928,44182
,2375,43954
,4424,39869
,2450,41946
,6102,42970
,6682,42648
,4766,42419
,6977,44904
,3367,42732
,4745,41097
,3834,41454
,3829,42607
,5665,41070
,6784,42458
,1296,41453
,5316,41856
,2814,42818
,917,42088
,5530,43471
,6848,42000
,5675,43237
,6450,42774
,41807,34031
,43587,34865
,43297,36500
,44750,34610
,41273,37270
,43695,33770
,42536,34707
,49043,34993
,42790,36459
,42807,34870
,45335,36912
,42768,34791
,42822,36259
,43485,34050
,42050,30416
,43996,34242
,40627,35049
,42574,34477
,47138,36746
,46186,35016
,45049,33934
,44831,33120
,44896,37290
,47101,33612
,44229,32829
,45517,33956
,42500,37188
,46025,33590
,43855,34053
,45912,35230
,43743,32689
,41712,37204
,46155,36845
,42887,35693
,46790,34893
,45166,35658
,42962,36565
,40211,36581
,42678,35504
,43088,32741
,43275,36183
,42998,32813
,42283,35546
,45277,35127
,44711,34257
,45251,36120
,42894,32927
,43617,33370
,42827,35362
,43163,31802
,45123,33068
,41775,34315
,42675,36033
,42654,36194
,43066,34949
,43951,32170
,43307,34574
,43066,35693
,47300,34717
,42175,32217
,46104,33045
,45838,33520
,46156,35944
,44197,37340
,44687,34822
,42950,34902
,43897,34562
,40243,36274
,44946,34718
,44979,37599
,42860,32230
,43155,34988
,43354,36491
,42920,34208
,44666,37014
,43954,34953
,41962,33523
,43357,34149
,42486,35654
,41916,34429
,43445,34877
,44512,34140
,43972,38240
,41321,33982
,42341,34702
,43595,35490
,45362,30926
,44554,36035
,41496,34384
,43718,35031
,42266,34561
,43146,37431
,43328,32882
,42729,32551
,43965,33758
,42847,34244
,42968,34995
,41888,34501
,43648,35505
,42037,35794
,45463,34483
,44280,33867
,43393,34827
,42378,35745
,41273,35067
,43796,32311
,45364,33095
,40993,35533
,43294,37614
,42785,33228
,43838,32039
,45483,36519
,43260,34943
,41312,35601
,44959,35167
,44263,33651
,43367,35070
,44552,34771
,42911,31116
,44984,37272
,43811,33789
,46134,35217
,43261,38108
,42011,35696
,43737,32817
,45384,36530
,42862,34504
,43216,34939
,42237,34262
,42249,35113
,42602,35679
,44769,34535
,41384,37669
,45010,33501
,44089,34530
,43518,34479
,45407,34472
,42705,33706
,42377,34121
,46879,36101
,41922,36116
,43878,31474
,41955,35508
,42406,35998
,44401,33646
,42558,33844
,45411,33445
,45644,35586
,42617,35670
,44482,33700
,39026,28218
,42351,28785
,41121,27141
,40158,31551
,41132,28470
,39165,29928
,40740,30873
,40824,28745
,41299,29883
,42064,28354
,41815,29195
,40975,29310
,38988,31715
,39872,30176
,40521,28895
,40944,28504
,38742,30624
,40475,29556
,42689,29772
,40452,29651
,38305,29495
,40332,27572
,41305,28067
,40251,30719
,42366,27329
,40528,29122
,41489,28005
,39272,29370
,40374,31882
,40120,29081
,42139,29828
,40203,29563
,39196,30593
,39422,28165
,42499,26129
,38828,29275
,42135,30443
,39694,27962
,38856,30385
,42542,27930
,38870,26778
,40892,27037
,42847,28275
,39559,27977
,42411,27392
,39923,29245
,40404,28516
,38514,26629
,40321,29683
,38945,27611
,44021,29339
,41872,31011
,38784,29229
,40166,27908
,39915,28140
,39680,29318
,39283,30142
,40520,28503
,39943,28143
,38112,29441
,39857,27581
,40626,29529
,38791,28417
,40798,29933
,39151,28432
,40465,28958
,42599,31306
,41897,31339
,42678,29186
,39289,31060
,42077,29406
,41278,31388
,37144,28753
,39993,27448
,38471,29587
,41300,27961
,39043,30611
,40227,29415
,42377,28058
,40346,29787
,41761,28334
,42120,28063
,43266,29454
,39757,27810
,41845,30117
,38110,28558
,38429,28637
,42109,30277
,39614,30784
,39485,28817
,39257,30660
,39547,30974
,42526,28024
,40530,31441
,41412,31944
,39481,28076
,37741,27869
,42568,29385
,40926,29084
,42189,30084
,42051,26764
,40813,29403
,40824,31005
,42173,29521
,38897,27159
,39269,28560
,41337,27737
,40116,28881
,41456,27472
,39826,29203
,39992,26930
,40454,29154
,41406,26904
,38144,29644
,40766,29317
,42284,30965
,39048,27751
,40219,25879
,42253,29076
,41585,31090
,41356,30508
,39367,27286
,39848,27121
,42462,30296
,39726,28882
,37417,28491
,41169,29731
,40371,30415
,37852,29403
,41423,32243
,40430,29016
,40493,28761
,40361,28667
,38412,28839
,38685,30586
,36144,28076
,40802,28766
,40887,27766
,40042,26506
,37794,29108
,40277,29414
,40181,28070
,40017,29413
,38539,29450
,40240,30489
,41644,29288
,38390,31676
,41981,29893
,43211,28466
,38504,28876
,45264,28294
,48623,28078
,47184,27498
,43943,25527
,45419,26967
,48060,26375
,43957,26138
,44764,25148
,45306,25965
,46355,25594
,44994,26248
,44868,26534
,45681,27122
,44253,26700
,45376,27100
,42255,25401
,44566,25920
,45344,25014
,43934,23213
,43883,25355
,45217,27688
,43308,28128
,44087,25269
,46064,26564
,45021,25939
,44388,24099
,44489,27410
,41959,24429
,44159,24578
,43602,26327
,47650,27533
,46122,24404
,45719,27022
,44590,24900
,47650,28041
,46886,25929
,46191,26595
,44293,27840
,43734,25645
,46298,23562
,45459,28434
,45320,22182
,46626,24323
,46072,25658
,41926,26892
,45331,23575
,46465,25650
,45579,27801
,45499,26362
,45793,25811
,45038,26345
,46160,24789
,43463,22896
,44143,26464
,46167,25535
,46628,27624
,44195,24662
,44204,24065
,45251,26495
,46158,27671
,45934,27164
,47513,26828
,47633,25255
,44837,25617
,43066,23623
,46599,26363
,44090,24909
,46837,27514
,45964,25489
,46386,26185
,43657,27465
,44639,26689
,47501,26286
,45032,27730
,47482,26416
,45201,26615
,44095,25500
,43793,27690
,47571,24093
,45525,24692
,42723,24884
,45235,25404
,45570,27569
,45934,30854
,44390,23933
,44612,24926
,45942,24596
,45737,26293
,43654,23418
,44395,27634
,47254,25794
,46138,25885
,45532,24034
,43300,24964
,44191,24892
,45926,25656
,45074,25167
,42648,25557
,47001,24756
,45104,26569
,44637,26150
,44976,25731
,43729,24860
,45229,26212
,45274,27825
,48490,25802
,46317,28535
,46030,27502
,46827,26857
,44601,26019
,45703,26361
,46279,26010
,46081,26909
,47329,25834
,44882,28477
,44489,24514
,45595,26388
,41017,25373
,45660,25309
,45470,25176
,44378,25296
,45646,25610
,47157,25467
,46784,26903
,46418,27390
,47546,28075
,44758,28732
,44097,25190
,47480,26372
,45203,24338
,44873,27435
,46298,23936
,40641,23826
,46460,25450
,47208,28797
,45068,24079
,47399,27333
,44148,27820
,45609,26085
,43839,27231
,44946,27149
,46041,30303
,46121,26077
,47024,26106
,46657,26719
,43210,26766
,44280,26293
,44533,25389
,45831,25783
,43438,27415
,51787,23671
,49995,22514
,48772,22411
,53630,24399
,51113,21793
,52496,22133
,50015,24776
,51514,25363
,51096,24115
,52479,26794
,53197,23094
,49457,24495
,52197,25987
,50101,25026
,51877,23966
,50025,21549
,52292,25365
,49718,23168
,52947,26083
,52321,24465
,50519,22631
,50682,22118
,50171,22054
,51019,22244
,50560,24122
,51852,24152
,49919,23070
,50616,24101
,50684,24842
,47160,23698
,53212,23495
,52510,20390
,49778,23124
,52019,23952
,49389,24842
,49949,21916
,50014,23098
,50211,23478
,50918,23104
,53367,24210
,49391,22360
,51581,23287
,50477,23695
,50960,23018
,50780,24580
,50999,23899
,51414,23118
,48643,23965
,52579,24417
,51658,25451
,50888,23063
,50046,21588
,51888,22731
,52104,23750
,50677,23682
,52694,23299
,51663,20962
,49764,23889
,52678,23746
,51075,21644
,49301,23457
,50848,23971
,51331,24943
,49522,20784
,49664,22114
,50222,24449
,50221,23718
,49740,22969
,48716,20467
,52318,24224
,47381,23970
,49053,22676
,50800,21631
,51346,23836
,50218,21004
,52589,24945
,49633,24689
,51165,25550
,49675,24156
,50026,21400
,51810,23101
,51919,22546
,52175,23201
,51164,22294
,49362,21865
,50870,25344
,52308,24602
,49928,22564
,52632,25080
,51456,22445
,51916,22386
,51971,24444
,48583,21031
,51922,21107
,48524,23884
,49814,22763
,50506,23820
,52146,25273
,50725,21930
,51279,23923
,52550,23317
,52380,26082
,50448,22046
,50041,22282
,49919,24890
,50603,23602
,51506,23188
,50403,22078
,50424,25293
,51388,24532
,49860,22221
,49242,21489
,49854,23391
,52002,23259
,51939,22120
,51345,25440
,49944,24275
,52431,21894
,54159,24796
,50948,23508
,48309,23276
,50403,24050
,48881,24228
,53950,22439
,50569,22827
,53855,24107
,50799,22242
,49354,22107
,51898,24229
,50872,26978
,50677,23304
,52107,21150
,51245,20654
,51292,22995
,48978,24664
,52570,23284
,50726,25740
,52041,22283
,50918,23858
,51796,24982
,52464,24331
,51470,22451
,49219,24702
,50287,21383
,51445,24321
,49864,21681
,50578,23572
,50691,23291
,51907,20743
,48578,22616
,59877,29271
,60534,29342
,57886,27256
,62111,29684
,62728,24002
,61075,27191
,60608,27844
,61565,26571
,61687,29995
,59021,29605
,60888,28676
,58713,28127
,60556,26861
,61794,29203
,58678,28250
,58646,27186
,58462,28535
,59878,26706
,58614,28773
,61099,29083
,60160,29029
,60182,27285
,61712,27968
,60523,27329
,62157,29329
,59697,27485
,61553,26657
,59155,27035
,59949,26516
,61436,30223
,60156,25507
,58304,25665
,62019,27673
,62431,27902
,60226,25204
,60502,25482
,60779,27398
,61484,26946
,60373,28807
,60069,28119
,58394,30435
,61695,27685
,58176,26916
,59876,27838
,60167,27920
,60221,27253
,60260,29732
,60650,28202
,60210,27232
,59684,25949
,59677,25725
,62692,29282
,60654,28987
,60524,26488
,59615,26767
,60288,26488
,60073,25250
,61444,25396
,61509,23903
,60989,28086
,60159,29394
,59172,28367
,59748,29320
,62217,28104
,59427,28300
,62151,28398
,62188,26031
,62833,25956
,59809,27410
,60397,28213
,58534,26184
,59301,26122
,56808,26583
,62215,29064
,60988,26605
,60641,26727
,61486,29504
,59677,27883
,58700,27188
,58691,24064
,61632,24699
,59589,25812
,59674,24878
,59622,29371
,61671,29284
,58029,28824
,60114,27116
,61035,29372
,61564,25344
,62080,27847
,58448,28721
,58949,27611
,60601,27545
,58351,26436
,59480,28335
,60748,25040
,59391,27516
,60778,26913
,59701,25977
,57554,26401
,59182,27675
,58462,27771
,57737,28296
,59791,26185
,62531,25554
,59190,27293
,61698,26297
,60820,27777
,59834,28141
,59569,28899
,60056,28356
,60455,26330
,60205,28420
,61001,29349
,60164,25893
,61306,29016
,58260,28670
,60065,27081
,62591,26993
,60794,27054
,61901,27525
,58319,26289
,58063,28774
,58273,29493
,57624,29524
,58994,25222
,61370,27526
,59958,28116
,59325,27351
,62761,29305
,60059,28732
,60220,27221
,58990,27909
,58964,28414
,61778,28715
,65535,27368
,59101,28561
,61007,30785
,61995,27990
,59294,27869
,60738,28559
,59146,28118
,61376,28001
,63214,28408
,60284,23186
,61396,27293
,58190,26242
,61326,29668
,57376,26748
,57627,27881
,8960,29349
,9566,30666
,10002,29085
,9051,28004
,8262,29745
,9612,30786
,8479,29223
,9685,31428
,10844,29711
,10599,28555
,9774,29756
,8628,26811
,10022,30615
,9438,29445
,12814,27360
,9850,30329
,10836,28222
,10426,29327
,10304,29461
,8230,28746
,9721,30334
,10873,28150
,10377,30144
,10892,28209
,8524,30378
,9101,28654
,10128,29483
,9649,28593
,9366,29374
,11057,29736
,6460,30262
,10367,26772
,10457,30519
,9051,27155
,9577,28211
,10954,30528
,7652,30430
,11097,29135
,10065,27809
,10488,28096
,10163,29088
,9675,29409
,9987,29425
,11268,29313
,8267,28916
,11099,27767
,10543,34688
,8560,29508
,8483,28006
,9342,32032
,10301,30834
,8480,30088
,9142,29191
,11412,27075
,9995,28615
,11058,29568
,8317,31050
,9311,30445
,11500,30524
,9591,28597
,10591,29903
,11187,30503
,8467,28664
,11283,29638
,7020,28995
,8104,26404
,10946,30147
,7667,30002
,10550,28898
,9696,32346
,8165,30977
,9585,28557
,8346,29467
,10422,29686
,8217,29682
,8290,29024
,12126,29771
,8716,29425
,10346,29067
,11613,29116
,7007,29910
,10072,28021
,7254,30094
,10074,29253
,8706,29930
,9237,27750
,8359,29600
,10861,32228
,10363,32174
,8836,31964
,10442,27678
,7558,29800
,11770,30653
,8838,30068
,10369,30502
,7590,27942
,8274,26149
,8923,29340
,8393,29895
,10601,31163
,8803,32264
,12655,27718
,10868,29933
,9819,30044
,9897,28490
,11568,27393
,8978,28090
,10446,28824
,7462,27246
,7998,28410
,10944,27649
,10735,29743
,9027,31248
,8945,28558
,8265,28431
,11315,30312
,8314,31119
,10579,29179
,8989,31605
,11292,30455
,8625,28312
,12609,32080
,10226,31264
,8944,30572
,8869,27868
,7308,31268
,7988,27975
,11824,26962
,10172,30032
,8125,30728
,9465,31115
,8975,26886
,11220,31547
,10099,31697
,10857,29911
,9789,28979
,7036,29421
,7446,27665
,9451,30100
,10988,32416
,9807,30515
,8516,30120
,9130,31558
,9830,30837
,9281,28697
,10466,28984
,12050,28590
,9784,30841
,6906,28815
,10895,28171
,4764,24290
,3241,23730
,3373,24827
,894,24681
,5567,22531
,3190,24760
,7017,21009
,3603,25332
,3771,25719
,3246,21924
,3589,21932
,2371,24287
,2269,24231
,3097,21394
,4978,22611
,4753,24184
,2347,25347
,5413,26551
,2296,25155
,1452,22110
,4978,22896
,5425,24065
,4778,23740
,3774,24675
,3039,25257
,5649,26576
,3596,21992
,4156,22920
,3278,21246
,4552,22408
,2194,26885
,5686,22890
,2037,21949
,3631,23516
,4730,23180
,5601,24537
,3687,21377
,4265,23831
,3644,24519
,2667,23560
,3291,25152
,2854,24170
,1167,23762
,3712,24214
,4232,23085
,5526,23496
,3577,23685
,6020,22796
,2429,22288
,4592,25831
,3179,26296
,4111,24633
,3531,23895
,4225,25618
,4418,24219
,3397,27161
,4344,24918
,3747,24153
,4791,24237
,4630,22233
,4544,24654
,3175,27253
,4826,21979
,6448,25421
,5051,24176
,3685,25028
,5257,25146
,5188,23943
,2974,23340
,3461,25676
,1727,23577
,5621,21827
,4331,23561
,5953,22827
,4668,22734
,5590,23060
,3360,23060
,6510,25712
,5676,24532
,770,23191
,4592,23051
,4861,24236
,3514,25310
,3089,21290
,4258,24714
,3646,23490
,7582,25212
,3982,23484
,4856,24447
,3617,22527
,4091,22789
,3974,24513
,4054,23542
,2897,24856
,5202,24235
,2867,22959
,5356,26103
,3230,23352
,4643,22467
,3355,24709
,3978,23217
,4221,24386
,5028,21796
,5698,22952
,4028,25469
,3024,24933
,3195,24800
,7090,24381
,5925,25794
,4354,25646
,1008,22117
,4151,22785
,2920,22687
,7553,24971
,4516,26078
,4101,23164
,2235,24350
,3032,23908
,3808,24582
,5922,25819
,4148,26157
,5098,22244
,4495,23648
,2938,23521
,6536,24638
,4418,25248
,2873,23152
,3793,22958
,7647,23763
,4557,24618
,3681,23850
,3799,23636
,4207,22595
,3553,24802
,3240,23761
,2354,23500
,4207,22555
,5851,23938
,3722,21956
,4664,23899
,4530,25789
,1983,23016
,1948,22376
,4920,23782
,4538,25811
,3997,26069
,5829,26891
,5009,20973
,2584,24784
,0,22078
,17962,26023
,17126,25276
,17268,25815
,16518,24663
,18746,24782
,20241,28422
,15014,25174
,17977,24325
,17647,24929
,17299,24104
,16709,25322
,15167,24077
,20776,27422
,19057,25994
,16868,24828
,16902,26513
,16884,24236
,16056,24256
,18527,23685
,16479,25135
,18955,26069
,15706,24699
,17506,27041
,18164,25800
,17332,24338
,18137,26037
,17705,24308
,14917,26140
,16066,26861
,17312,27007
,19659,21415
,18716,25385
,17525,23155
,21290,25636
,17489,24124
,19502,22790
,18383,25446
,15486,26648
,16777,25359
,16886,25079
,17710,24681
,16207,23075
,19411,24955
,17736,25896
,17496,26318
,16915,24747
,19247,23951
,17775,24593
,17511,24471
,17602,26541
,14485,27466
,15979,26274
,20381,22782
,17980,25260
,19851,26231
,15404,24870
,18213,24827
,17329,24473
,17367,26152
,17206,26700
,17030,26307
,17740,28367
,17487,25975
,19162,25294
,18158,24906
,20294,24226
,18340,27647
,15102,25414
,15326,24570
,14839,25260
,19789,25147
,18949,24091
,15641,23648
,16305,23842
,16955,22616
,17410,25227
,18566,25703
,15411,26176
,19299,28112
,14085,28166
,17928,25576
,16142,23942
,17943,24764
,19957,21532
,16133,27168
,18832,27497
,17561,24800
,16654,24888
,16185,25163
,16981,25791
,16855,26632
,14423,25801
,16161,25461
,19151,23781
,17294,24801
,19172,25370
,17672,28124
,18649,25043
,18240,26864
,16846,26128
,15718,25497
,16056,24384
,16766,25036
,17488,25743
,17343,27032
,16669,24102
,18144,26739
,18249,24324
,16889,25891
,14743,24907
,17790,23197
,20360,23621
,17582,24517
,16781,25568
,18430,25763
,15085,26535
,18069,21652
,16500,22665
,17531,25805
,20728,24622
,16134,24570
,17636,23726
,19271,25591
,17367,24594
,17680,26246
,17360,25859
,14238,27140
,19237,25170
,18354,24744
,17646,24411
,19545,25494
,15182,26610
,17218,25332
,17914,24885
,16974,24082
,17269,25349
,18398,25148
,19493,24887
,20822,27150
,18824,29245
,17987,26518
,16893,25122
,18763,24448
,16837,26072
,17430,24985
,17456,26189
,18407,26152
,17030,24430
,20007,27200
,16053,26575
,26312,31227
,25017,26287
,27476,28969
,25713,26756
,25885,27968
,25029,28125
,22528,30210
,26796,28401
,23635,26488
,24866,26593
,25012,26290
,25349,24873
,26731,27876
,24533,28927
,25132,26510
,27969,30464
,26103,25297
,28111,28535
,27950,29629
,24092,29194
,24967,28447
,27160,30533
,26451,28536
,26889,28722
,24989,24825
,27917,28836
,25397,28293
,27258,28125
,24499,27664
,25704,29764
,25373,29582
,24965,27267
,26432,28944
,25535,27830
,25995,27802
,22697,28753
,26218,27464
,25294,27480
,22749,27675
,27038,28832
,24270,28931
,27183,26224
,26319,25532
,24785,29494
,27819,25056
,25839,27562
,24791,27600
,25244,26468
,25310,26748
,25702,27426
,24628,28482
,27038,28556
,23988,24918
,24779,29722
,27422,29136
,24789,30062
,25400,28415
,24134,29482
,25691,28379
,24315,29067
,24924,30282
,26147,28155
,25778,26123
,28193,29350
,24890,29543
,25790,27154
,24950,26484
,27946,28999
,23827,25432
,24016,28500
,28122,28920
,25020,26735
,26426,27831
,25387,28090
,26838,28835
,27371,26519
,24919,31669
,23227,27473
,25220,25827
,28262,29679
,27058,29986
,26435,28758
,25847,26408
,26059,28450
,26138,26992
,25810,25928
,27287,31400
,24755,27907
,25277,25951
,24858,28055
,25256,26518
,24534,28398
,26456,27662
,27040,28031
,26193,25178
,24140,27726
,26314,27919
,26291,28313
,23954,25437
,23730,26572
,24916,28314
,25045,25929
,24101,28711
,24786,29832
,25996,27760
,24467,28864
,24683,28165
,24735,27265
,27364,31768
,26836,29055
,25966,28288
,25759,29479
,24988,29977
,25742,29312
,23940,27505
,24699,28271
,23606,27982
,27871,27737
,23830,27380
,26408,29438
,24547,28559
,26846,28612
,28802,26573
,26715,28782
,26741,26922
,26395,28804
,24694,26367
,22649,28486
,26067,25246
,25916,28365
,25166,27443
,23726,29498
,25172,27945
,21559,27870
,25497,30730
,24690,28433
,23993,26897
,24389,26848
,27793,30409
,25670,29585
,25315,29353
,24794,28701
,23891,26055
,24756,28198
,24358,27633
,26686,28492
,24992,27565
,23645,27378
,24862,29010
,29049,28114